{
    "homepage": "https://nodejs.org",
    "version": "6.17.0",
    "license": "MIT",
    "architecture": {
        "64bit": {
            "url": "https://nodejs.org/dist/v6.17.0/node-v6.17.0-win-x64.7z",
            "hash": "4757a015153d9beae528417a3259688be725dbffc9e0eb6458118845427d213b",
            "extract_dir": "node-v6.17.0-win-x64"
        },
        "32bit": {
            "url": "https://nodejs.org/dist/v6.17.0/node-v6.17.0-win-x86.7z",
            "hash": "65108ba51eb52dcdca98f7d7846869a460926644ebcf377ec87bd55f9ae704c4",
            "extract_dir": "node-v6.17.0-win-x86"
        }
    },
    "persist": [
        "bin",
        "cache"
    ],
    "env_add_path": [
        ".",
        "bin"
    ],
    "post_install": [
        "# Set npm prefix to install modules inside bin and npm cache so they persist",
        "Set-Content -Value \"prefix=$persist_dir\\bin`ncache=$persist_dir\\cache\" -Path \"$dir\\node_modules\\npm\\npmrc\""
    ],
    "checkver": {
        "url": "https://nodejs.org/dist/latest-v6.x/",
        "re": "node-v([\\d.]+)-x86.msi"
    },
    "autoupdate": {
        "architecture": {
            "64bit": {
                "url": "https://nodejs.org/dist/v$version/node-v$version-win-x64.7z",
                "extract_dir": "node-v$version-win-x64"
            },
            "32bit": {
                "url": "https://nodejs.org/dist/v$version/node-v$version-win-x86.7z",
                "extract_dir": "node-v$version-win-x86"
            }
        },
        "hash": {
            "url": "$baseurl/SHASUMS256.txt.asc"
        }
    }
}
