{
    "homepage": "https://tomcat.apache.org/",
    "version": "8.5.39",
    "architecture": {
        "64bit": {
            "url": "https://www.apache.org/dist/tomcat/tomcat-8/v8.5.39/bin/apache-tomcat-8.5.39-windows-x64.zip",
            "hash": "sha512:2d315834f5fc5406d3f973be2fe6c50e082db4d9fc3da235692411285391e60dbbcbb388d7966b343e46f9ce5c8b6d1b5803633305d69b9b5e29730a226d7801"
        },
        "32bit": {
            "url": "https://www.apache.org/dist/tomcat/tomcat-8/v8.5.39/bin/apache-tomcat-8.5.39-windows-x86.zip",
            "hash": "sha512:3aad863693d86952e7fef1b15534f9921fbe68f12cc623af53910cbc20d2d97c0b4f0936f8bb4c969f4637691b3db7fbbefa2dfc2199fea7c0fe1417b911311e"
        }
    },
    "extract_dir": "apache-tomcat-8.5.39",
    "bin": "bin\\catalina.bat",
    "env_set": {
        "CATALINA_HOME": "$dir",
        "CATALINA_BASE": "$dir"
    },
    "suggest": {
        "JRE": "java/openjdk"
    },
    "checkver": {
        "url": "https://www.apache.org/dist/tomcat/tomcat-8/?C=M;O=D",
        "re": "v(?<version>[\\d.]+)"
    },
    "autoupdate": {
        "architecture": {
            "64bit": {
                "url": "https://www.apache.org/dist/tomcat/tomcat-8/v$version/bin/apache-tomcat-$version-windows-x64.zip"
            },
            "32bit": {
                "url": "https://www.apache.org/dist/tomcat/tomcat-8/v$version/bin/apache-tomcat-$version-windows-x86.zip"
            }
        },
        "hash": {
            "url": "$url.sha512"
        },
        "extract_dir": "apache-tomcat-$version"
    }
}
